{
  "results": [
    {
      "equipment": {
        "id": 12,
        "type": "Light Duty Wheel Lift",
		"licensePlateState":"Pennsylvania",
        "licensePlateNumber": "LOWES1",
		"nickName":"TRUCK#1"
      },
      "status": {
        "id": 1,
        "type": "Available"
      }
    },
	{
    "equipment": {
        "id": 11,
        "type": "Light Duty Wheel Lift",
		"licensePlateState":"Pennsylvania",
        "licensePlateNumber": "LOWES2",
		"nickName":"TRUCK#2"
      },
      "status": {
        "id": 2,
        "type": "UnAvailable"
      }
    },
	{
    "equipment": {
        "id": 10,
        "type": "Heavy Duty Wheel Lift",
		"licensePlateState":"Pennsylvania",
        "licensePlateNumber": "LOWES3",
		"nickName":"TRUCK#3"
      },
      "status": {
        "id": 1,
        "type": "Available"
      }
    },
	{
    "equipment": {
        "id": 9,
        "type": "Heavy Duty FlatBed",
		"licensePlateState":"Pennsylvania",
        "licensePlateNumber": "LOWES4",
		"nickName":"TRUCK#4"
      },
      "status": {
        "id": 2,
        "type": "UnAvailable"
      }
    },
	{
    "equipment": {
        "id": 9,
        "type": "Heavy Duty FlatBed",
		"licensePlateState":"Pennsylvania",
        "licensePlateNumber": "LOWES4",
		"nickName":"TRUCK#4"
      },
      "status": {
        "id": 2,
        "type": "Available"
      }
    },
	{
    "equipment": {
        "id": 9,
        "type": "Heavy Duty FlatBed",
		"licensePlateState":"Pennsylvania",
        "licensePlateNumber": "LOWES4",
		"nickName":"TRUCK#4"
      },
      "status": {
        "id": 2,
        "type": "Available"
      }
    },
	{
    "equipment": {
        "id": 9,
        "type": "Heavy Duty FlatBed",
		"licensePlateState":"Pennsylvania",
        "licensePlateNumber": "LOWES4",
		"nickName":"TRUCK#4"
      },
      "status": {
        "id": 2,
        "type": "UnAvailable"
      }
    },
	{
    "equipment": {
        "id": 9,
        "type": "Heavy Duty FlatBed",
		"licensePlateState":"Pennsylvania",
        "licensePlateNumber": "LOWES4",
		"nickName":"TRUCK#4"
      },
      "status": {
        "id": 2,
        "type": "UnAvailable"
      }
    }
	
  ]
}